Categories:Connectivity,System,Navigation
License:AGPL-3.0
Web Site:https://gadgetbridge.org
Source Code:https://github.com/Freeyourgadget/Gadgetbridge
Issue Tracker:https://github.com/Freeyourgadget/Gadgetbridge/issues
Changelog:https://github.com/Freeyourgadget/Gadgetbridge/blob/HEAD/CHANGELOG.md
LiberapayID:11276

Auto Name:Gadgetbridge
Summary:Communicate with Pebble/Mi Band/Amazfit Bip/Hplus devices and more
Description:
Use your Pebble/Mi Band/Amazfit Bip/Hplus device without the vendor's closed
source application and without the need to create an account and transmit any of
your data to the vendor's servers.

You can get notifications on your wrist and (depending on the device):

* collect data from the device sensors
* control music playing on your android device
* see the weather (you need [[ru.gelin.android.weather.notification]] installed)
* get directions (e.g. by using [[net.osmand.plus]])

Gadgetbridge is under active development, for an up to date list of supported
devices and an overview of current features, please refer to the
[https://github.com/Freeyourgadget/Gadgetbridge/blob/HEAD/README.md README].
.

Repo Type:git
Repo:https://github.com/Freeyourgadget/Gadgetbridge.git

Build:0.1.0,1
    commit=0.1.0
    subdir=app
    gradle=yes

Build:0.1.1,2
    commit=0.1.1
    subdir=app
    gradle=yes

Build:0.1.2,3
    commit=0.1.2
    subdir=app
    gradle=yes

Build:0.1.3,4
    commit=0.1.3
    subdir=app
    gradle=yes

Build:0.1.4,5
    commit=0.1.4
    subdir=app
    gradle=yes

Build:0.1.5,6
    commit=0.1.5
    subdir=app
    gradle=yes

Build:0.2.0,7
    commit=0.2.0
    subdir=app
    gradle=yes

Build:0.3.1,9
    commit=0.3.1
    subdir=app
    gradle=yes

Build:0.3.2,10
    commit=0.3.2
    subdir=app
    gradle=yes

Build:0.3.3,11
    commit=0.3.3
    subdir=app
    gradle=yes

Build:0.3.4,12
    commit=0.3.4
    subdir=app
    gradle=yes

Build:0.3.5,13
    commit=0.3.5
    subdir=app
    gradle=yes

Build:0.4.0,14
    commit=0.4.0
    subdir=app
    gradle=yes

Build:0.4.1,15
    commit=0.4.1
    subdir=app
    gradle=yes

Build:0.4.2,16
    commit=0.4.2
    subdir=app
    gradle=yes

Build:0.4.3,17
    commit=0.4.3
    subdir=app
    gradle=yes

Build:0.4.4,18
    commit=0.4.4
    subdir=app
    gradle=yes

Build:0.4.5,19
    commit=0.4.5
    subdir=app
    gradle=yes

Build:0.4.6,20
    commit=0.4.6
    subdir=app
    gradle=yes

Build:0.5.0,21
    commit=0.5.0
    subdir=app
    gradle=yes

Build:0.5.1,22
    commit=0.5.1
    subdir=app
    gradle=yes

Build:0.5.2,23
    commit=0.5.2
    subdir=app
    gradle=yes

Build:0.5.3,24
    commit=0.5.3
    subdir=app
    gradle=yes

Build:0.5.4,25
    commit=0.5.4
    subdir=app
    gradle=yes

Build:0.6.0,26
    commit=0.6.0
    subdir=app
    gradle=yes

Build:0.6.1,27
    commit=0.6.1
    subdir=app
    gradle=yes

Build:0.6.2,28
    commit=0.6.2
    subdir=app
    gradle=yes

Build:0.6.3,29
    commit=0.6.3
    subdir=app
    gradle=yes

Build:0.6.4,30
    commit=0.6.4
    subdir=app
    gradle=yes

Build:0.6.5,31
    commit=0.6.5
    subdir=app
    gradle=yes

Build:0.6.6,32
    commit=0.6.6
    subdir=app
    gradle=yes

Build:0.6.7,33
    commit=0.6.7
    subdir=app
    gradle=yes

Build:0.6.8,34
    commit=0.6.8
    subdir=app
    gradle=yes

Build:0.6.9,35
    commit=0.6.9
    subdir=app
    gradle=yes

Build:0.7.0,36
    commit=0.7.0
    subdir=app
    gradle=yes

Build:0.7.1,37
    commit=0.7.1
    subdir=app
    gradle=yes

Build:0.7.2,38
    commit=0.7.2
    subdir=app
    gradle=yes

Build:0.7.3,39
    commit=0.7.3
    subdir=app
    gradle=yes

Build:0.7.4,40
    commit=0.7.4
    subdir=app
    gradle=yes

Build:0.8.0,41
    commit=0.8.0
    subdir=app
    gradle=yes

Build:0.8.1,42
    commit=0.8.1
    subdir=app
    gradle=yes

Build:0.8.2,43
    commit=0.8.2
    subdir=app
    gradle=yes

Build:0.9.0,44
    commit=0.9.0
    subdir=app
    gradle=yes

Build:0.9.1,45
    commit=0.9.1
    subdir=app
    gradle=yes

Build:0.9.2,46
    commit=0.9.2
    subdir=app
    gradle=yes

Build:0.9.3,47
    commit=0.9.3
    subdir=app
    gradle=yes

Build:0.9.4,48
    commit=0.9.4
    subdir=app
    gradle=yes

Build:0.9.5,49
    commit=0.9.5
    subdir=app
    gradle=yes

Build:0.9.6,50
    commit=0.9.6
    subdir=app
    gradle=yes

Build:0.9.7,51
    commit=0.9.7
    subdir=app
    gradle=yes

Build:0.9.8,52
    commit=0.9.8
    subdir=app
    gradle=yes

Build:0.10.0,53
    commit=0.10.0
    subdir=app
    gradle=yes

Build:0.10.1,54
    commit=0.10.1
    subdir=app
    gradle=yes

Build:0.10.2,55
    commit=0.10.2
    subdir=app
    gradle=yes

Build:0.11.0,56
    commit=0.11.0
    subdir=app
    gradle=yes

Build:0.11.1,57
    commit=0.11.1
    subdir=app
    gradle=yes

Build:0.11.2,58
    commit=0.11.2
    subdir=app
    gradle=yes

Build:0.12.0,59
    commit=0.12.0-fdroidfix
    subdir=app
    gradle=yes

Build:0.12.2,61
    commit=0.12.2
    subdir=app
    gradle=yes

Build:0.13.0,62
    commit=0.13.0
    subdir=app
    gradle=yes

Build:0.13.1,63
    commit=0.13.1
    subdir=app
    gradle=yes

Build:0.13.2,64
    commit=0.13.2
    subdir=app
    gradle=yes

Build:0.13.3,65
    commit=0.13.3
    subdir=app
    gradle=yes

Build:0.13.4,66
    commit=0.13.4
    subdir=app
    gradle=yes

Build:0.13.5,67
    commit=0.13.5
    subdir=app
    gradle=yes

Build:0.13.6,68
    commit=0.13.6
    subdir=app
    gradle=yes

Build:0.13.7,69
    commit=0.13.7
    subdir=app
    gradle=yes

Build:0.13.8,70
    commit=0.13.8
    subdir=app
    gradle=yes

Build:0.13.9,71
    commit=0.13.9
    subdir=app
    gradle=yes

Build:0.14.0,72
    commit=0.14.0
    subdir=app
    gradle=yes

Build:0.14.2,74
    commit=0.14.2
    subdir=app
    gradle=yes

Build:0.14.3,75
    commit=0.14.3
    subdir=app
    gradle=yes

Build:0.14.4,76
    commit=0.14.4
    subdir=app
    gradle=yes

Build:0.15.0,77
    commit=0.15.0
    subdir=app
    gradle=yes

Build:0.15.1,78
    commit=0.15.1
    subdir=app
    gradle=yes

Build:0.15.2,79
    commit=0.15.2
    subdir=app
    gradle=yes

Build:0.16.0,80
    commit=0.16.0
    subdir=app
    gradle=yes

Build:0.17.0,81
    commit=0.17.0
    subdir=app
    gradle=yes

Build:0.17.1,82
    commit=0.17.1
    subdir=app
    gradle=yes

Build:0.17.2,83
    commit=0.17.2
    subdir=app
    gradle=yes

Build:0.17.3,84
    commit=0.17.3
    subdir=app
    gradle=yes

Build:0.17.4,85
    commit=0.17.4
    subdir=app
    gradle=yes

Build:0.17.5,86
    commit=0.17.5
    subdir=app
    gradle=yes

Build:0.18.0,87
    commit=0.18.0
    subdir=app
    gradle=yes

Build:0.18.1,88
    commit=0.18.1
    subdir=app
    gradle=yes

Build:0.18.3,90
    commit=0.18.3
    subdir=app
    gradle=yes

Build:0.18.4,91
    commit=0.18.4
    subdir=app
    gradle=yes

Build:0.18.5,92
    commit=0.18.5
    subdir=app
    gradle=yes

Build:0.19.1,94
    commit=0.19.1
    subdir=app
    gradle=yes

Build:0.19.2,95
    commit=0.19.2
    subdir=app
    gradle=yes

Build:0.19.3,96
    commit=0.19.3
    subdir=app
    gradle=yes

Build:0.19.4,97
    commit=0.19.4
    subdir=app
    gradle=yes

Build:0.20.0,98
    commit=0.20.0
    subdir=app
    gradle=yes

Build:0.20.1,99
    commit=0.20.1
    subdir=app
    gradle=yes

Build:0.20.2,100
    commit=0.20.2
    subdir=app
    gradle=yes

Build:0.21.0,101
    commit=0.21.0
    subdir=app
    gradle=yes

Build:0.21.1,102
    commit=0.21.1
    subdir=app
    gradle=yes

Build:0.21.2,103
    commit=0.21.2
    subdir=app
    gradle=yes

Build:0.21.3,104
    commit=0.21.3
    subdir=app
    gradle=yes

Build:0.21.5,106
    commit=0.21.5
    subdir=app
    gradle=yes

Build:0.21.6,107
    commit=0.21.6
    subdir=app
    gradle=yes

Build:0.22.0,108
    commit=0.22.0
    subdir=app
    gradle=yes

Build:0.22.1,109
    commit=0.22.1
    subdir=app
    gradle=yes

Build:0.22.2,110
    commit=0.22.2
    subdir=app
    gradle=yes

Build:0.22.3,111
    commit=0.22.3
    subdir=app
    gradle=yes

Build:0.22.4,112
    commit=0.22.4
    subdir=app
    gradle=yes

Build:0.22.5,113
    commit=0.22.5
    subdir=app
    gradle=yes

Build:0.23.0,114
    commit=0.23.0
    subdir=app
    gradle=yes

Build:0.23.1,115
    commit=0.23.1
    subdir=app
    gradle=yes

Build:0.23.2,116
    commit=0.23.2
    subdir=app
    gradle=yes

Build:0.24.0,117
    commit=0.24.0
    subdir=app
    gradle=yes

Build:0.24.1,118
    commit=0.24.1
    subdir=app
    gradle=yes

Build:0.24.2,119
    commit=0.24.2
    subdir=app
    gradle=yes

Build:0.24.3,120
    commit=0.24.3
    subdir=app
    gradle=yes

Build:0.24.4,121
    commit=0.24.4
    subdir=app
    gradle=yes

Build:0.24.5,122
    commit=0.24.5
    subdir=app
    gradle=yes

Build:0.24.6,123
    commit=0.24.6
    subdir=app
    gradle=yes

Build:0.25.0,124
    commit=0.25.0
    subdir=app
    gradle=yes

Build:0.25.1,125
    commit=0.25.1
    subdir=app
    gradle=yes

Auto Update Mode:Version %v
Update Check Mode:Tags
Current Version:0.25.1
Current Version Code:125
